 AS V1.42 Beta [Bld 212] - Source File enthalpy.asm - Page 1 - 11/23/21 16:30:26


       1/       0 :                            ORG 000h
       2/       0 : 3E 0F               START: MVI	A,00Fh ; specific heat value
       3/       2 : 16 0A                      MVI	D,00Ah	; grams of substance
       4/       4 : CD 60 00                   CALL MULT
       5/       7 : 16 02                      MVI  D,002h         ; change in temperature
       6/       9 : EB                         XCHG
       7/       A : CD 60 00                   CALL MULT
       8/       D : 22 36 00            	   SHLD	0054
       9/      10 : 76                         HLT		; Halt and Catch Fire (HCF)
      10/      11 :                     
      11/      11 :                     
      12/      60 :                     	   ORG	0060h	; Set Program Counter to address 0
      13/      60 :                     MULT:		; Multiplier    (-1) to A   Register
      14/      60 : 1E 00               	MVI	E,000h
      15/      62 : 21 00 00            	LXI	H,000h	; Clear H,L Registers to initialize Partial Product
      16/      65 : 06 08               	MVI	B,008h	; Iteration Count (8) to B Register
      17/      67 :                     
      18/      67 : 29                  LOOP:	DAD	H	; Shift Partial Product left into Carry (H&L)
      19/      68 : 17                  	RAL		; Rotate Multiplier Bit to Carry
      20/      69 : D2 6F 00            	JNC	NEXT	; Test Multiplier at Carry
      21/      6C : 19                  	DAD	D	; Add Multiplicand to Partial Product (D&E)
      22/      6D :                     			;   if Carry =1
      23/      6D : CE 00               	ACI	000h	; (Add Carry Bit)
      24/      6F : 05                  NEXT:	DCR	B	; Decrement Iteration Counter
      25/      70 : C2 67 00            	JNZ	LOOP	; Check Iterations
      26/      73 :                     ;	JMP	START	; Restart
      27/      73 : C9                  	RET
      28/      74 :                         
      29/      74 :                     
      30/      74 :                     
      31/      74 :                     
      32/      40 :                     	ORG	040h	; Set Program Counter to address 100 (octal)
      33/      40 :                     TOTAL:	DS	002h	; Reserve 2 bytes (1 word) of unintialized storage
      34/      42 :                     
      35/      42 :                     	END		; End
 AS V1.42 Beta [Bld 212] - Source File enthalpy.asm - Page 2 - 11/23/21 16:30:26


  Symbol Table (* = unused):
  --------------------------

*ARCHITECTURE :                                     "aarch64-unknown-linux" - |
*BIGENDIAN :                      0 - | *BRANCHEXT :                      0 - |
*CASESENSITIVE :                  0 - | *COMPMODE :                       0 - |
*CONSTPI :        3.141592653589793 - | *CUSTOM :                         0 - |
*DATE :                  "11/23/21" - | *FALSE :                          0 - |
*FULLPMMU :                       1 - | *HAS64 :                          1 - |
*HASDSP :                         0 - | *HASFPU :                         0 - |
*HASPMMU :                        0 - | *INEXTMODE :                      0 - |
*INLWORDMODE :                    0 - | *INMAXMODE :                      0 - |
*INSRCMODE :                      0 - | *INSUPMODE :                      0 - |
*LISTON :                         1 - |  LOOP :                          67 C |
*MACEXP :                         7 - | *MOMCPU :                      8080 - |
*MOMCPUNAME :                "8080" - |  MULT :                          60 C |
*NESTMAX :                      100 - |  NEXT :                          6F C |
*PACKING :                        0 - | *PADDING :                        1 - |
*RELAXED :                        0 - | *START :                          0 C |
*TIME :                  "16:30:26" - | *TOTAL :                         40 C |
*TRUE :                           1 - | *VERSION :                     142F - |
*Z80SYNTAX :                      0 - |

     36 symbols
     33 unused symbols

 AS V1.42 Beta [Bld 212] - Source File enthalpy.asm - Page 3 - 11/23/21 16:30:26


  Code Pages:
  ----------

STANDARD (0 changed characters)

1 code page

0.00 seconds assembly time

     46 lines source file
      2 passes
      0 errors
      0 warnings
